<svg width="1440" height="2671" viewBox="0 0 1440 2671" fill="none" xmlns="http://www.w3.org/2000/svg">
<path opacity="0.76888" fill-rule="evenodd" clip-rule="evenodd" d="M0 0H1440V2409.45C1440 2516.08 1356.34 2603.97 1249.83 2609.21L0 2670.71V0Z" fill="url(#paint0_linear)"/>
<mask id="mask0" mask-type="alpha" maskUnits="userSpaceOnUse" x="0" y="0" width="1440" height="2671">
<path fill-rule="evenodd" clip-rule="evenodd" d="M0 0H1440V2409.45C1440 2516.08 1356.34 2603.97 1249.83 2609.21L0 2670.71V0Z" fill="white"/>
</mask>
<g mask="url(#mask0)">
<ellipse opacity="0.387858" cx="485.312" cy="2676.36" rx="937.591" ry="938" fill="url(#paint1_linear)"/>
</g>
<defs>
<linearGradient id="paint0_linear" x1="-399.083" y1="0" x2="-399.083" y2="2260.84" gradientUnits="userSpaceOnUse">
<stop stop-color="#FBFFFE"/>
<stop offset="0.976918" stop-color="#F3FBFF"/>
</linearGradient>
<linearGradient id="paint1_linear" x1="-854.781" y1="2695.01" x2="752.49" y2="4800.58" gradientUnits="userSpaceOnUse">
<stop offset="0.0163079" stop-color="#E6F4FB" stop-opacity="0.857299"/>
<stop offset="1" stop-color="#EAF2F0"/>
</linearGradient>
</defs>
</svg>
