<svg width="14" height="10" viewBox="0 0 14 10" fill="none" xmlns="http://www.w3.org/2000/svg">
<path d="M7.42417 1.09375C7.14292 0.8125 6.67417 0.8125 6.39292 1.09375L0.299171 7.15625C0.0179214 7.46875 0.0179214 7.9375 0.299171 8.21875L1.01792 8.9375C1.29917 9.21875 1.76792 9.21875 2.08042 8.9375L6.92417 4.125L11.7367 8.9375C12.0492 9.21875 12.5179 9.21875 12.7992 8.9375L13.5179 8.21875C13.7992 7.9375 13.7992 7.46875 13.5179 7.15625L7.42417 1.09375Z" fill="#183B56"/>
</svg>
