<svg
  width="1440"
  height="506"
  viewBox="0 0 1440 506"
  fill="none"
  xmlns="http://www.w3.org/2000/svg"
>
<path
    fill-rule="evenodd"
    clip-rule="evenodd"
    d="M0 112.232H394.996C405.583 112.232 415.739 108.034 423.237 100.559L512.396 11.6724C519.894 4.19745 530.05 0 540.637 0H1440V506H0L0 112.232Z"
    fill="url(#paint0_linear)"
  />
<mask
    id="mask0"
    mask-type="alpha"
    maskUnits="userSpaceOnUse"
    x="0"
    y="0"
    width="1440"
    height="506"
  >
<path
      fill-rule="evenodd"
      clip-rule="evenodd"
      d="M0 112.232H394.996C405.583 112.232 415.739 108.034 423.237 100.559L512.396 11.6724C519.894 4.19745 530.05 0 540.637 0H1440V506H0L0 112.232Z"
      fill="white"
    />
</mask>
<g mask="url(#mask0)">
<path
      fill-rule="evenodd"
      clip-rule="evenodd"
      d="M905 467L905 -44.7959L1417 -45L905 467Z"
      fill="url(#paint1_linear)"
    />
<path
      fill-rule="evenodd"
      clip-rule="evenodd"
      d="M0 512V0.204132L512 0L0 512Z"
      fill="url(#paint2_linear)"
    />
</g>
<defs>
<linearGradient
      id="paint0_linear"
      x1="1507.69"
      y1="346.37"
      x2="675.631"
      y2="1050.91"
      gradientUnits="userSpaceOnUse"
    >
<stop stop-color="#E6F8FF" />
<stop offset="1" stop-color="#F8FBFF" />
</linearGradient>
<linearGradient
      id="paint1_linear"
      x1="951.934"
      y1="-193.445"
      x2="609.961"
      y2="282.36"
      gradientUnits="userSpaceOnUse"
    >
<stop stop-color="#DEF3FC" />
<stop offset="1" stop-color="#F2FBFF" stop-opacity="0.132594" />
</linearGradient>
<linearGradient
      id="paint2_linear"
      x1="46.9345"
      y1="-148.445"
      x2="-295.039"
      y2="327.36"
      gradientUnits="userSpaceOnUse"
    >
<stop stop-color="#DEF3FC" />
<stop offset="1" stop-color="#F2FBFF" stop-opacity="0.132594" />
</linearGradient>
</defs>
</svg>
