<svg width="320" height="583" viewBox="0 0 320 583" fill="none" xmlns="http://www.w3.org/2000/svg">
<path opacity="0.796642" fill-rule="evenodd" clip-rule="evenodd" d="M0 0L320 1.79291V854.386C320 909.506 275.398 954.232 220.279 954.386L0 955V0Z" fill="url(#paint0_linear)"/>
<mask id="mask0" mask-type="alpha" maskUnits="userSpaceOnUse" x="0" y="0" width="320" height="955">
<path fill-rule="evenodd" clip-rule="evenodd" d="M0 0L320 1.79291V854.386C320 909.506 275.398 954.232 220.279 954.386L0 955V0Z" fill="white"/>
</mask>
<g mask="url(#mask0)">
<circle opacity="0.523647" cx="407.426" cy="-17.8423" r="514.5" fill="url(#paint1_linear)"/>
<circle opacity="0.538086" cx="-383.664" cy="837.438" r="819" transform="rotate(45 -383.664 837.438)" fill="url(#paint2_linear)"/>
</g>
<defs>
<linearGradient id="paint0_linear" x1="340.666" y1="298.318" x2="21.0412" y2="266.452" gradientUnits="userSpaceOnUse">
<stop stop-color="#EAF2F0"/>
<stop offset="1" stop-color="#F8FAFD"/>
</linearGradient>
<linearGradient id="paint1_linear" x1="-413.641" y1="-537.849" x2="463.405" y2="580.584" gradientUnits="userSpaceOnUse">
<stop stop-color="#D5EDE5"/>
<stop offset="1" stop-color="#F8FAFD"/>
</linearGradient>
<linearGradient id="paint2_linear" x1="-1690.67" y1="9.67303" x2="-294.555" y2="1790.03" gradientUnits="userSpaceOnUse">
<stop stop-color="#D5EDE5"/>
<stop offset="1" stop-color="#F8FAFD"/>
</linearGradient>
</defs>
</svg>
