<svg width="128" height="128" viewBox="0 0 128 128" fill="none" xmlns="http://www.w3.org/2000/svg">
<path fill-rule="evenodd" clip-rule="evenodd" d="M115.756 104.814C116.152 105.218 116.019 105.995 115.459 106.55C114.921 107.083 114.185 107.218 113.776 106.871L113.727 106.825L108.641 101.762C86.3746 123.944 50.3424 123.918 28.1085 101.684C6.0712 79.6467 5.85083 44.0541 27.4474 21.7457L27.8601 21.325L23.7658 17.2484C23.3696 16.8449 23.5028 16.0677 24.0632 15.5124C24.6013 14.9793 25.3376 14.8445 25.7461 15.1915L25.7955 15.2374L115.756 104.814Z" fill="url(#paint0_linear)"/>
<path d="M81.231 35.5996L66.9842 20.8338" stroke="#AEC6A4" stroke-width="4" stroke-linecap="round"/>
<path d="M69.2473 34.9716L51.2154 16.0019" stroke="#AEC6A4" stroke-width="4" stroke-linecap="round"/>
<path d="M57.2638 34.3436L32.5898 9.05243" stroke="#AEC6A4" stroke-width="4" stroke-linecap="round"/>
<path fill-rule="evenodd" clip-rule="evenodd" d="M40.9419 78.2375V71.8762L44.9342 48.8567L84.2204 49.8645L88.9998 73.2375V78.8762L40.9419 78.2375Z" fill="white"/>
<path fill-rule="evenodd" clip-rule="evenodd" d="M56.6659 89.8762H73.3341C73.8333 89.8759 74.3062 89.6647 74.6226 89.3006C74.939 88.9364 75.0656 88.4578 74.9676 87.9963L73.3007 80.1391C73.1449 79.405 72.4613 78.8766 71.6673 78.8762H58.3327C57.5387 78.8766 56.8551 79.405 56.6993 80.1391L55.0324 87.9963C54.9344 88.4578 55.061 88.9364 55.3774 89.3006C55.6938 89.6647 56.1667 89.8759 56.6659 89.8762ZM71.3006 86.7333H58.6994L59.6995 82.019H70.3005L71.3006 86.7333Z" fill="#183B56"/>
<path d="M80.35 89.8762H50.65C49.7387 89.8762 49 89.2046 49 88.3762C49 87.5477 49.7387 86.8762 50.65 86.8762H80.35C81.2613 86.8762 82 87.5477 82 88.3762C82 89.2046 81.2613 89.8762 80.35 89.8762Z" fill="#183B56"/>
<path fill-rule="evenodd" clip-rule="evenodd" d="M90.8957 71.2339L85.94 49.4871C85.94 48.6732 85.2827 48.0157 84.4689 48.0157H81.2242H70.7807H44.312C43.4982 48.0157 42.8409 48.6732 42.8409 49.4871L38.0939 71.2548H38.1043C38.0417 71.4113 38 71.5783 38 71.7557V79.4048C38 80.2187 38.6573 80.8762 39.4711 80.8762H89.5289C90.3427 80.8762 91 80.2187 91 79.4048V71.7557C91 71.5783 90.9583 71.4009 90.8957 71.2339ZM45.7831 50.948H82.9978L87.3797 70.2843H41.5785L45.7831 50.948ZM40.9421 78.2374H88.0579V73.2374H40.9421V78.2374Z" fill="#183B56"/>
<path d="M79.5002 53.2751H74.6122C73.7984 53.2751 73.1411 53.9325 73.1411 54.7464C73.1411 55.5603 73.7984 56.2178 74.6122 56.2178H79.5002C80.3139 56.2178 80.9712 55.5603 80.9712 54.7464C80.9712 53.9325 80.3139 53.2751 79.5002 53.2751Z" fill="#FBBD92"/>
<path d="M42.1719 66.3763H46.7751H78.4753H42.1719Z" stroke="#183B56" stroke-width="2.75" stroke-linecap="round" stroke-linejoin="round"/>
<path d="M48.621 54.3921L49.9617 54.6973V54.6973L48.621 54.3921ZM47.0882 61.1262L45.7475 60.8211C45.6547 61.2289 45.7525 61.6569 46.0134 61.9839C46.2743 62.3108 46.6699 62.5012 47.0882 62.5012V61.1262ZM46.5311 61.3208L47.8718 61.6259V61.6259L46.5311 61.3208ZM48.1335 54.2811L46.7928 53.9759L46.7928 53.9759L48.1335 54.2811ZM49.9617 54.6973C50.1609 53.8222 49.613 52.9513 48.7379 52.7521L48.1276 55.4335C47.5218 55.2956 47.1424 54.6927 47.2803 54.0869L49.9617 54.6973ZM48.4289 61.4314L49.9617 54.6973L47.2803 54.0869L45.7475 60.8211L48.4289 61.4314ZM64.5136 59.7512H47.0882V62.5012H64.5136V59.7512ZM66.1386 61.3762C66.1386 60.4788 65.411 59.7512 64.5136 59.7512V62.5012C63.8923 62.5012 63.3886 61.9976 63.3886 61.3762H66.1386ZM64.5136 63.0012C65.411 63.0012 66.1386 62.2737 66.1386 61.3762H63.3886C63.3886 60.7549 63.8923 60.2512 64.5136 60.2512V63.0012ZM46.7749 63.0012H64.5136V60.2512H46.7749V63.0012ZM45.5047 62.3898C45.8131 62.7762 46.2805 63.0012 46.7749 63.0012V60.2512C47.1172 60.2512 47.4408 60.407 47.6543 60.6746L45.5047 62.3898ZM45.1904 61.0156C45.0807 61.4976 45.1964 62.0034 45.5047 62.3898L47.6543 60.6746C47.8677 60.9421 47.9478 61.2922 47.8718 61.6259L45.1904 61.0156ZM46.7928 53.9759L45.1904 61.0156L47.8718 61.6259L49.4742 54.5863L46.7928 53.9759ZM48.7379 52.7521C47.8628 52.5529 46.992 53.1009 46.7928 53.9759L49.4742 54.5863C49.3363 55.1921 48.7334 55.5714 48.1276 55.4335L48.7379 52.7521ZM68.8545 59.7512C67.957 59.7512 67.2295 60.4788 67.2295 61.3762H69.9795C69.9795 61.9976 69.4758 62.5012 68.8545 62.5012V59.7512ZM75.9967 59.7512H68.8545V62.5012H75.9967V59.7512ZM77.6217 61.3762C77.6217 60.4788 76.8942 59.7512 75.9967 59.7512V62.5012C75.3754 62.5012 74.8717 61.9976 74.8717 61.3762H77.6217ZM75.9967 63.0012C76.8942 63.0012 77.6217 62.2737 77.6217 61.3762H74.8717C74.8717 60.7549 75.3754 60.2512 75.9967 60.2512V63.0012ZM68.8545 63.0012H75.9967V60.2512H68.8545V63.0012ZM67.2295 61.3762C67.2295 62.2737 67.957 63.0012 68.8545 63.0012V60.2512C69.4758 60.2512 69.9795 60.7549 69.9795 61.3762H67.2295Z" fill="#183B56"/>
<path d="M77.0026 45C78.2558 45 79.2718 46.016 79.2718 47.2692V48.0158H74.7334V47.2692C74.7334 46.016 75.7494 45 77.0026 45Z" fill="#FBBD92"/>
<defs>
<linearGradient id="paint0_linear" x1="-14.7291" y1="76.8849" x2="110.038" y2="129.592" gradientUnits="userSpaceOnUse">
<stop stop-color="#AEC6A4"/>
<stop offset="1" stop-color="#475B61"/>
</linearGradient>
</defs>
</svg>
