<svg width="22" height="22" viewBox="0 0 22 22" fill="none" xmlns="http://www.w3.org/2000/svg">
<path d="M6.59603 9H19.4189C20.2776 9 20.9932 9.68182 20.9932 10.5C20.9932 11.3182 20.2776 12 19.4189 12H6.5674C5.70873 12 4.99316 11.3182 4.99316 10.5C5.02179 9.65455 5.70873 9 6.59603 9Z" fill="#183B56"/>
<path d="M12.9251 0H19.9031C20.7272 0 21.4141 0.681818 21.4141 1.5C21.4141 2.31818 20.7272 3 19.9031 3H12.9251C12.1009 3 11.4141 2.31818 11.4141 1.5C11.4141 0.681818 12.1009 0 12.9251 0Z" fill="#183B56"/>
<path d="M1.60218 19H19.4264C20.2847 19 21 19.6818 21 20.5C21 21.3182 20.2847 22 19.4264 22H1.57357C0.71526 22 0 21.3182 0 20.5C0.0286102 19.6818 0.71526 19 1.60218 19Z" fill="#183B56"/>
</svg>
