<svg width="13" height="13" viewBox="0 0 13 13" fill="none" xmlns="http://www.w3.org/2000/svg">
<path d="M11.467 5.4375H7.52954V1.5C7.52954 1.03516 7.11938 0.625 6.65454 0.625H5.77954C5.28735 0.625 4.90454 1.03516 4.90454 1.5V5.4375H0.967041C0.474854 5.4375 0.092041 5.84766 0.092041 6.3125V7.1875C0.092041 7.67969 0.474854 8.0625 0.967041 8.0625H4.90454V12C4.90454 12.4922 5.28735 12.875 5.77954 12.875H6.65454C7.11938 12.875 7.52954 12.4922 7.52954 12V8.0625H11.467C11.9319 8.0625 12.342 7.67969 12.342 7.1875V6.3125C12.342 5.84766 11.9319 5.4375 11.467 5.4375Z" fill="#183B56"/>
</svg>
