<svg width="1440" height="827" viewBox="0 0 1440 827" fill="none" xmlns="http://www.w3.org/2000/svg">
<path opacity="0.670317" fill-rule="evenodd" clip-rule="evenodd" d="M1441 200.509C1441 89.9637 1351.32 0.384367 1240.77 0.509066L0 1.90871V630.908C0 717.555 68.9738 788.458 155.588 790.847L1441 826.306V200.509Z" fill="url(#paint0_linear)"/>
<mask id="mask0" mask-type="alpha" maskUnits="userSpaceOnUse" x="0" y="0" width="1441" height="827">
<path fill-rule="evenodd" clip-rule="evenodd" d="M1441 200.509C1441 89.9637 1351.32 0.384367 1240.77 0.509066L0 1.90871V630.908C0 717.555 68.9738 788.458 155.588 790.847L1441 826.306V200.509Z" fill="white"/>
</mask>
<g mask="url(#mask0)">
<circle r="514.5" transform="matrix(-1 0 0 1 -87.5 -66.5001)" fill="url(#paint1_linear)"/>
<circle opacity="0.625279" r="819" transform="matrix(-0.707107 0.707107 0.707107 0.707107 1646.59 946.143)" fill="url(#paint2_linear)"/>
</g>
<defs>
<linearGradient id="paint0_linear" x1="-93.0635" y1="258.312" x2="1052.04" y2="-336.062" gradientUnits="userSpaceOnUse">
<stop stop-color="#EAF2F0"/>
<stop offset="1" stop-color="#F8FAFD"/>
</linearGradient>
<linearGradient id="paint1_linear" x1="-306.568" y1="-5.50631" x2="570.479" y2="1112.93" gradientUnits="userSpaceOnUse">
<stop stop-color="#D5EDE5"/>
<stop offset="1" stop-color="#F8FAFD"/>
</linearGradient>
<linearGradient id="paint2_linear" x1="-488.005" y1="-8.76514" x2="908.109" y2="1771.6" gradientUnits="userSpaceOnUse">
<stop stop-color="#D5EDE5"/>
<stop offset="1" stop-color="#F8FAFD"/>
</linearGradient>
</defs>
</svg>
